{
  "type": "service_account",
  "project_id": "imageupload-1e936",
  "private_key_id": "96c8846dde937880455d3ac30be850be7ef50722",
  "private_key": "-----BEGIN PRIVATE KEY-----\nMIIEvgIBADANBgkqhkiG9w0BAQEFAASCBKgwggSkAgEAAoIBAQClKjSVk0MH6Sdz\nj1sGKo9cd0SEOw6JoW0UUpU1c5LqCWRUIODZjP9HKdsPOUE+sbpjjV5sDVZhBL2l\nU0/EEMCqHX82xJFfUnJY3Z/MCZds1rpZBU/yVDS6IsQsv93RdMTOpeHjL/Boq4pi\nKJhS9Dcj/xzoQc3YtmQfPK+Run7Q25MM2x67yK8M1YZuom/YXnTIuagr9C1wKH4f\neaBzHZ88D7ub6zZOPWhfcLy9P2aZsPzvsREPCTUv00mxc2e1fMfHubCQDe/RAd3w\nt6yAhgyh9BpRTsYBbOi1l3t2OoblKBgv1h3LCPFqqWt/aewlePuekMAuSeWII4rj\nu/1rZvtRAgMBAAECggEAB02weZTDeAwVVITYT5N+N2aGvxolcGyU+DsWogB0VKkJ\nqLazeqtDdpAhQbEUc4NEbLaJoFmOokelYzQl6NOc0WjwgSl8DC0HJWrXcBxUd9me\n7+TOPjb/BeQXrKrnUiXJtiGbtYIfLWG4gtKsua5W6d6UFqkiQxz9nGwAj38hsHaS\n8LG5pFcLzkhcpAxkntPmLXGHxeOoLsvsv297dLKD6oDwxuSq10GjDy95AOqtubpb\ncevYD9zP4sGD1U+Pd6jk0V0bst98fTaWIJQfvU0uuLzPfe+7QUa8GJJRri8NmhTB\n/pjnTHlXqUc+kqyEufSSKYqrabauZhyimyzxSt1QCQKBgQDfUveWysj1+ga/s9Wd\neLmCZEBdeiGbKLG7vnXk3BHvpAjOKAJ2orKK39NTZYzaH4iK0GGq/yfMOWgf9h8I\n8rIdyR+cXip6H9i5sGRLEq9TZgd/W08PVNRwxfghbbR/bhtHP0WmJdrxw2VG3Igw\niU90jGrqFHcU2Tr/pXx0UWEMFwKBgQC9VMXR9j0ECte0fv47NboPElitJy8kWR8r\nYSvCSapI20OXEvbn9VmLoECkI/XN/LZjQdMFn8rRajFWtegAIfye12MKIEsL+r0T\nXUcpeWrzXeMLb55wF6khmpsW2ljR1S9wAL0symay7BbASvqFJxb3bOJwes8YV7eK\nutfJbYlM1wKBgB41Wdpi6dYkEP+jctTPPMC/kNlUKPGVCp2rwMTJY/+3f51rWhH0\nJhSU/D/+r5PdyhmE4IFB7H86kLQqFb6fHarbxtPfBP3qCuXrT1W8XEz6sy7uCf63\n6dirXsoezdii6zuy+lfkLP6hALUaJa3zFPVd/SRWyljenZVxLCmLzIXXAoGBAIAD\niZ3leGv7SM3p78vpD9yQ8xRgoidZexHBqey8Ej8gwhqr3/YGln0p5YsWJWUZsdh6\n8UukN2ZQ/vs6E5vDXyOnTnfSTevTpXQqZatNRVs36AQbfG0eEmV+O86/4748/s4k\nMcTPNZFUwC1UhP7y5zx0isaywsQayycqHi07utIRAoGBAIN3lEKmGBwJwKZetogr\nDXd9Il2z2p8Ho2h6TcwIqdcPAAq2M/4zazTj9HH8Z23COvLkeh+2Bi4sjuVeLOOY\n0GJanF83iBunUVxAF6efV1ZJ0NnQk/ijOEi5+/04w5KDTFIIPM8ZlSoKVuFgJlAF\n8LXQ7PyV4aV3m8jrXixLfspM\n-----END PRIVATE KEY-----\n",
  "client_email": "imageupload-1e936@appspot.gserviceaccount.com",
  "client_id": "100110136959095220008",
  "auth_uri": "https://accounts.google.com/o/oauth2/auth",
  "token_uri": "https://oauth2.googleapis.com/token",
  "auth_provider_x509_cert_url": "https://www.googleapis.com/oauth2/v1/certs",
  "client_x509_cert_url": "https://www.googleapis.com/robot/v1/metadata/x509/imageupload-1e936%40appspot.gserviceaccount.com"
}
